[
  {
    "role": "user",
    "resource": "User",
    "action": "read:own",
    "attributes": "*"
  },
  {
    "role": "admin",
    "resource": "User",
    "action": "read:own",
    "attributes": "*"
  },
  {
    "role": "user",
    "resource": "User",
    "action": "create:any",
    "attributes": "*"
  },
  {
    "role": "admin",
    "resource": "User",
    "action": "create:any",
    "attributes": "*"
  },
  {
    "role": "user",
    "resource": "User",
    "action": "update:any",
    "attributes": "*"
  },
  {
    "role": "admin",
    "resource": "User",
    "action": "update:any",
    "attributes": "*"
  },
  {
    "role": "user",
    "resource": "User",
    "action": "delete:any",
    "attributes": "*"
  },
  {
    "role": "admin",
    "resource": "User",
    "action": "delete:any",
    "attributes": "*"
  },
  {
    "role": "user",
    "resource": "User",
    "action": "read:any",
    "attributes": "*"
  },
  {
    "role": "admin",
    "resource": "User",
    "action": "read:any",
    "attributes": "*"
  },
  {
    "role": "user",
    "resource": "School",
    "action": "read:own",
    "attributes": "*"
  },
  {
    "role": "user",
    "resource": "School",
    "action": "create:any",
    "attributes": "*"
  },
  {
    "role": "user",
    "resource": "School",
    "action": "update:any",
    "attributes": "*"
  },
  {
    "role": "user",
    "resource": "School",
    "action": "delete:any",
    "attributes": "*"
  },
  {
    "role": "admin",
    "resource": "School",
    "action": "read:own",
    "attributes": "*"
  },
  {
    "role": "admin",
    "resource": "School",
    "action": "create:any",
    "attributes": "*"
  },
  {
    "role": "admin",
    "resource": "School",
    "action": "update:any",
    "attributes": "*"
  },
  {
    "role": "admin",
    "resource": "School",
    "action": "delete:any",
    "attributes": "*"
  },
  {
    "role": "user",
    "resource": "School",
    "action": "read:any",
    "attributes": "*"
  },
  {
    "role": "admin",
    "resource": "School",
    "action": "read:any",
    "attributes": "*"
  },
  {
    "role": "user",
    "resource": "Semester",
    "action": "read:own",
    "attributes": "*"
  },
  {
    "role": "admin",
    "resource": "Semester",
    "action": "read:own",
    "attributes": "*"
  },
  {
    "role": "user",
    "resource": "Semester",
    "action": "create:any",
    "attributes": "*"
  },
  {
    "role": "admin",
    "resource": "Semester",
    "action": "create:any",
    "attributes": "*"
  },
  {
    "role": "user",
    "resource": "Semester",
    "action": "update:any",
    "attributes": "*"
  },
  {
    "role": "admin",
    "resource": "Semester",
    "action": "update:any",
    "attributes": "*"
  },
  {
    "role": "user",
    "resource": "Semester",
    "action": "delete:any",
    "attributes": "*"
  },
  {
    "role": "admin",
    "resource": "Semester",
    "action": "delete:any",
    "attributes": "*"
  },
  {
    "role": "user",
    "resource": "Semester",
    "action": "read:any",
    "attributes": "*"
  },
  {
    "role": "admin",
    "resource": "Semester",
    "action": "read:any",
    "attributes": "*"
  },
  {
    "role": "user",
    "resource": "Student",
    "action": "read:own",
    "attributes": "*"
  },
  {
    "role": "admin",
    "resource": "Student",
    "action": "read:own",
    "attributes": "*"
  },
  {
    "role": "user",
    "resource": "Student",
    "action": "create:any",
    "attributes": "*"
  },
  {
    "role": "admin",
    "resource": "Student",
    "action": "create:any",
    "attributes": "*"
  },
  {
    "role": "user",
    "resource": "Student",
    "action": "update:any",
    "attributes": "*"
  },
  {
    "role": "admin",
    "resource": "Student",
    "action": "update:any",
    "attributes": "*"
  },
  {
    "role": "user",
    "resource": "Student",
    "action": "delete:any",
    "attributes": "*"
  },
  {
    "role": "admin",
    "resource": "Student",
    "action": "delete:any",
    "attributes": "*"
  },
  {
    "role": "user",
    "resource": "Student",
    "action": "read:any",
    "attributes": "*"
  },
  {
    "role": "admin",
    "resource": "Student",
    "action": "read:any",
    "attributes": "*"
  },
  {
    "role": "user",
    "resource": "Classroom",
    "action": "read:own",
    "attributes": "*"
  },
  {
    "role": "admin",
    "resource": "Classroom",
    "action": "read:own",
    "attributes": "*"
  },
  {
    "role": "user",
    "resource": "Classroom",
    "action": "create:any",
    "attributes": "*"
  },
  {
    "role": "admin",
    "resource": "Classroom",
    "action": "create:any",
    "attributes": "*"
  },
  {
    "role": "user",
    "resource": "Classroom",
    "action": "update:any",
    "attributes": "*"
  },
  {
    "role": "admin",
    "resource": "Classroom",
    "action": "update:any",
    "attributes": "*"
  },
  {
    "role": "user",
    "resource": "Classroom",
    "action": "delete:any",
    "attributes": "*"
  },
  {
    "role": "admin",
    "resource": "Classroom",
    "action": "delete:any",
    "attributes": "*"
  },
  {
    "role": "user",
    "resource": "Classroom",
    "action": "read:any",
    "attributes": "*"
  },
  {
    "role": "admin",
    "resource": "Classroom",
    "action": "read:any",
    "attributes": "*"
  },
  {
    "role": "user",
    "resource": "Subject",
    "action": "read:own",
    "attributes": "*"
  },
  {
    "role": "admin",
    "resource": "Subject",
    "action": "read:own",
    "attributes": "*"
  },
  {
    "role": "user",
    "resource": "Subject",
    "action": "create:any",
    "attributes": "*"
  },
  {
    "role": "admin",
    "resource": "Subject",
    "action": "create:any",
    "attributes": "*"
  },
  {
    "role": "user",
    "resource": "Subject",
    "action": "update:any",
    "attributes": "*"
  },
  {
    "role": "admin",
    "resource": "Subject",
    "action": "update:any",
    "attributes": "*"
  },
  {
    "role": "user",
    "resource": "Subject",
    "action": "delete:any",
    "attributes": "*"
  },
  {
    "role": "admin",
    "resource": "Subject",
    "action": "delete:any",
    "attributes": "*"
  },
  {
    "role": "user",
    "resource": "Subject",
    "action": "read:any",
    "attributes": "*"
  },
  {
    "role": "admin",
    "resource": "Subject",
    "action": "read:any",
    "attributes": "*"
  },
  {
    "role": "user",
    "resource": "Teacher",
    "action": "read:own",
    "attributes": "*"
  },
  {
    "role": "admin",
    "resource": "Teacher",
    "action": "read:own",
    "attributes": "*"
  },
  {
    "role": "user",
    "resource": "Teacher",
    "action": "create:any",
    "attributes": "*"
  },
  {
    "role": "admin",
    "resource": "Teacher",
    "action": "create:any",
    "attributes": "*"
  },
  {
    "role": "user",
    "resource": "Teacher",
    "action": "update:any",
    "attributes": "*"
  },
  {
    "role": "admin",
    "resource": "Teacher",
    "action": "update:any",
    "attributes": "*"
  },
  {
    "role": "user",
    "resource": "Teacher",
    "action": "delete:any",
    "attributes": "*"
  },
  {
    "role": "admin",
    "resource": "Teacher",
    "action": "delete:any",
    "attributes": "*"
  },
  {
    "role": "user",
    "resource": "Teacher",
    "action": "read:any",
    "attributes": "*"
  },
  {
    "role": "admin",
    "resource": "Teacher",
    "action": "read:any",
    "attributes": "*"
  },
  {
    "role": "user",
    "resource": "Parent",
    "action": "read:own",
    "attributes": "*"
  },
  {
    "role": "admin",
    "resource": "Parent",
    "action": "read:own",
    "attributes": "*"
  },
  {
    "role": "user",
    "resource": "Parent",
    "action": "create:any",
    "attributes": "*"
  },
  {
    "role": "admin",
    "resource": "Parent",
    "action": "create:any",
    "attributes": "*"
  },
  {
    "role": "user",
    "resource": "Parent",
    "action": "update:any",
    "attributes": "*"
  },
  {
    "role": "admin",
    "resource": "Parent",
    "action": "update:any",
    "attributes": "*"
  },
  {
    "role": "user",
    "resource": "Parent",
    "action": "delete:any",
    "attributes": "*"
  },
  {
    "role": "admin",
    "resource": "Parent",
    "action": "delete:any",
    "attributes": "*"
  },
  {
    "role": "user",
    "resource": "Parent",
    "action": "read:any",
    "attributes": "*"
  },
  {
    "role": "admin",
    "resource": "Parent",
    "action": "read:any",
    "attributes": "*"
  },
  {
    "role": "user",
    "resource": "Grade",
    "action": "read:own",
    "attributes": "*"
  },
  {
    "role": "admin",
    "resource": "Grade",
    "action": "read:own",
    "attributes": "*"
  },
  {
    "role": "user",
    "resource": "Grade",
    "action": "create:any",
    "attributes": "*"
  },
  {
    "role": "admin",
    "resource": "Grade",
    "action": "create:any",
    "attributes": "*"
  },
  {
    "role": "user",
    "resource": "Grade",
    "action": "update:any",
    "attributes": "*"
  },
  {
    "role": "admin",
    "resource": "Grade",
    "action": "update:any",
    "attributes": "*"
  },
  {
    "role": "user",
    "resource": "Grade",
    "action": "delete:any",
    "attributes": "*"
  },
  {
    "role": "admin",
    "resource": "Grade",
    "action": "delete:any",
    "attributes": "*"
  },
  {
    "role": "user",
    "resource": "Grade",
    "action": "read:any",
    "attributes": "*"
  },
  {
    "role": "admin",
    "resource": "Grade",
    "action": "read:any",
    "attributes": "*"
  },
  {
    "role": "user",
    "resource": "SchoolYear",
    "action": "read:own",
    "attributes": "*"
  },
  {
    "role": "admin",
    "resource": "SchoolYear",
    "action": "read:own",
    "attributes": "*"
  },
  {
    "role": "user",
    "resource": "SchoolYear",
    "action": "create:any",
    "attributes": "*"
  },
  {
    "role": "admin",
    "resource": "SchoolYear",
    "action": "create:any",
    "attributes": "*"
  },
  {
    "role": "user",
    "resource": "SchoolYear",
    "action": "update:any",
    "attributes": "*"
  },
  {
    "role": "admin",
    "resource": "SchoolYear",
    "action": "update:any",
    "attributes": "*"
  },
  {
    "role": "user",
    "resource": "SchoolYear",
    "action": "delete:any",
    "attributes": "*"
  },
  {
    "role": "admin",
    "resource": "SchoolYear",
    "action": "delete:any",
    "attributes": "*"
  },
  {
    "role": "user",
    "resource": "SchoolYear",
    "action": "read:any",
    "attributes": "*"
  },
  {
    "role": "admin",
    "resource": "SchoolYear",
    "action": "read:any",
    "attributes": "*"
  },
  {
    "role": "user",
    "resource": "Notify",
    "action": "read:own",
    "attributes": "*"
  },
  {
    "role": "admin",
    "resource": "Notify",
    "action": "read:own",
    "attributes": "*"
  },
  {
    "role": "user",
    "resource": "Notify",
    "action": "create:any",
    "attributes": "*"
  },
  {
    "role": "admin",
    "resource": "Notify",
    "action": "create:any",
    "attributes": "*"
  },
  {
    "role": "user",
    "resource": "Notify",
    "action": "update:any",
    "attributes": "*"
  },
  {
    "role": "admin",
    "resource": "Notify",
    "action": "update:any",
    "attributes": "*"
  },
  {
    "role": "user",
    "resource": "Notify",
    "action": "delete:any",
    "attributes": "*"
  },
  {
    "role": "admin",
    "resource": "Notify",
    "action": "delete:any",
    "attributes": "*"
  },
  {
    "role": "user",
    "resource": "Notify",
    "action": "read:any",
    "attributes": "*"
  },
  {
    "role": "admin",
    "resource": "Notify",
    "action": "read:any",
    "attributes": "*"
  },
  {
    "role": "user",
    "resource": "TeachingInfo",
    "action": "read:own",
    "attributes": "*"
  },
  {
    "role": "admin",
    "resource": "TeachingInfo",
    "action": "read:own",
    "attributes": "*"
  },
  {
    "role": "user",
    "resource": "TeachingInfo",
    "action": "create:any",
    "attributes": "*"
  },
  {
    "role": "admin",
    "resource": "TeachingInfo",
    "action": "create:any",
    "attributes": "*"
  },
  {
    "role": "user",
    "resource": "TeachingInfo",
    "action": "update:any",
    "attributes": "*"
  },
  {
    "role": "admin",
    "resource": "TeachingInfo",
    "action": "update:any",
    "attributes": "*"
  },
  {
    "role": "user",
    "resource": "TeachingInfo",
    "action": "delete:any",
    "attributes": "*"
  },
  {
    "role": "admin",
    "resource": "TeachingInfo",
    "action": "delete:any",
    "attributes": "*"
  },
  {
    "role": "user",
    "resource": "TeachingInfo",
    "action": "read:any",
    "attributes": "*"
  },
  {
    "role": "admin",
    "resource": "TeachingInfo",
    "action": "read:any",
    "attributes": "*"
  },
  {
    "role": "user",
    "resource": "TimeTable",
    "action": "read:own",
    "attributes": "*"
  },
  {
    "role": "admin",
    "resource": "TimeTable",
    "action": "read:own",
    "attributes": "*"
  },
  {
    "role": "user",
    "resource": "TimeTable",
    "action": "create:any",
    "attributes": "*"
  },
  {
    "role": "admin",
    "resource": "TimeTable",
    "action": "create:any",
    "attributes": "*"
  },
  {
    "role": "user",
    "resource": "TimeTable",
    "action": "update:any",
    "attributes": "*"
  },
  {
    "role": "admin",
    "resource": "TimeTable",
    "action": "update:any",
    "attributes": "*"
  },
  {
    "role": "user",
    "resource": "TimeTable",
    "action": "delete:any",
    "attributes": "*"
  },
  {
    "role": "admin",
    "resource": "TimeTable",
    "action": "delete:any",
    "attributes": "*"
  },
  {
    "role": "user",
    "resource": "TimeTable",
    "action": "read:any",
    "attributes": "*"
  },
  {
    "role": "admin",
    "resource": "TimeTable",
    "action": "read:any",
    "attributes": "*"
  },
  {
    "role": "user",
    "resource": "Lesson",
    "action": "read:own",
    "attributes": "*"
  },
  {
    "role": "admin",
    "resource": "Lesson",
    "action": "read:own",
    "attributes": "*"
  },
  {
    "role": "user",
    "resource": "Lesson",
    "action": "create:any",
    "attributes": "*"
  },
  {
    "role": "admin",
    "resource": "Lesson",
    "action": "create:any",
    "attributes": "*"
  },
  {
    "role": "user",
    "resource": "Lesson",
    "action": "update:any",
    "attributes": "*"
  },
  {
    "role": "admin",
    "resource": "Lesson",
    "action": "update:any",
    "attributes": "*"
  },
  {
    "role": "user",
    "resource": "Lesson",
    "action": "delete:any",
    "attributes": "*"
  },
  {
    "role": "admin",
    "resource": "Lesson",
    "action": "delete:any",
    "attributes": "*"
  },
  {
    "role": "user",
    "resource": "Lesson",
    "action": "read:any",
    "attributes": "*"
  },
  {
    "role": "admin",
    "resource": "Lesson",
    "action": "read:any",
    "attributes": "*"
  },
  {
    "role": "user",
    "resource": "Attendance",
    "action": "read:own",
    "attributes": "*"
  },
  {
    "role": "admin",
    "resource": "Attendance",
    "action": "read:own",
    "attributes": "*"
  },
  {
    "role": "user",
    "resource": "Attendance",
    "action": "create:any",
    "attributes": "*"
  },
  {
    "role": "admin",
    "resource": "Attendance",
    "action": "create:any",
    "attributes": "*"
  },
  {
    "role": "user",
    "resource": "Attendance",
    "action": "update:any",
    "attributes": "*"
  },
  {
    "role": "admin",
    "resource": "Attendance",
    "action": "update:any",
    "attributes": "*"
  },
  {
    "role": "user",
    "resource": "Attendance",
    "action": "delete:any",
    "attributes": "*"
  },
  {
    "role": "admin",
    "resource": "Attendance",
    "action": "delete:any",
    "attributes": "*"
  },
  {
    "role": "user",
    "resource": "Attendance",
    "action": "read:any",
    "attributes": "*"
  },
  {
    "role": "admin",
    "resource": "Attendance",
    "action": "read:any",
    "attributes": "*"
  },
  {
    "role": "user",
    "resource": "StudyTime",
    "action": "read:own",
    "attributes": "*"
  },
  {
    "role": "admin",
    "resource": "StudyTime",
    "action": "read:own",
    "attributes": "*"
  },
  {
    "role": "user",
    "resource": "StudyTime",
    "action": "create:any",
    "attributes": "*"
  },
  {
    "role": "admin",
    "resource": "StudyTime",
    "action": "create:any",
    "attributes": "*"
  },
  {
    "role": "user",
    "resource": "StudyTime",
    "action": "update:any",
    "attributes": "*"
  },
  {
    "role": "admin",
    "resource": "StudyTime",
    "action": "update:any",
    "attributes": "*"
  },
  {
    "role": "user",
    "resource": "StudyTime",
    "action": "delete:any",
    "attributes": "*"
  },
  {
    "role": "admin",
    "resource": "StudyTime",
    "action": "delete:any",
    "attributes": "*"
  },
  {
    "role": "user",
    "resource": "StudyTime",
    "action": "read:any",
    "attributes": "*"
  },
  {
    "role": "admin",
    "resource": "StudyTime",
    "action": "read:any",
    "attributes": "*"
  },
  {
    "role": "user",
    "resource": "Department",
    "action": "read:own",
    "attributes": "*"
  },
  {
    "role": "admin",
    "resource": "Department",
    "action": "read:own",
    "attributes": "*"
  },
  {
    "role": "user",
    "resource": "Department",
    "action": "create:any",
    "attributes": "*"
  },
  {
    "role": "admin",
    "resource": "Department",
    "action": "create:any",
    "attributes": "*"
  },
  {
    "role": "user",
    "resource": "Department",
    "action": "update:any",
    "attributes": "*"
  },
  {
    "role": "admin",
    "resource": "Department",
    "action": "update:any",
    "attributes": "*"
  },
  {
    "role": "user",
    "resource": "Department",
    "action": "delete:any",
    "attributes": "*"
  },
  {
    "role": "admin",
    "resource": "Department",
    "action": "delete:any",
    "attributes": "*"
  },
  {
    "role": "user",
    "resource": "Department",
    "action": "read:any",
    "attributes": "*"
  },
  {
    "role": "admin",
    "resource": "Department",
    "action": "read:any",
    "attributes": "*"
  },
  {
    "role": "user",
    "resource": "SpecialLesson",
    "action": "read:own",
    "attributes": "*"
  },
  {
    "role": "admin",
    "resource": "SpecialLesson",
    "action": "read:own",
    "attributes": "*"
  },
  {
    "role": "user",
    "resource": "SpecialLesson",
    "action": "create:any",
    "attributes": "*"
  },
  {
    "role": "admin",
    "resource": "SpecialLesson",
    "action": "create:any",
    "attributes": "*"
  },
  {
    "role": "user",
    "resource": "SpecialLesson",
    "action": "update:any",
    "attributes": "*"
  },
  {
    "role": "admin",
    "resource": "SpecialLesson",
    "action": "update:any",
    "attributes": "*"
  },
  {
    "role": "user",
    "resource": "SpecialLesson",
    "action": "delete:any",
    "attributes": "*"
  },
  {
    "role": "admin",
    "resource": "SpecialLesson",
    "action": "delete:any",
    "attributes": "*"
  },
  {
    "role": "user",
    "resource": "SpecialLesson",
    "action": "read:any",
    "attributes": "*"
  },
  {
    "role": "admin",
    "resource": "SpecialLesson",
    "action": "read:any",
    "attributes": "*"
  },
  {
    "role": "user",
    "resource": "SubjectInfoTimetable",
    "action": "read:own",
    "attributes": "*"
  },
  {
    "role": "admin",
    "resource": "SubjectInfoTimetable",
    "action": "read:own",
    "attributes": "*"
  },
  {
    "role": "user",
    "resource": "SubjectInfoTimetable",
    "action": "create:any",
    "attributes": "*"
  },
  {
    "role": "admin",
    "resource": "SubjectInfoTimetable",
    "action": "create:any",
    "attributes": "*"
  },
  {
    "role": "user",
    "resource": "SubjectInfoTimetable",
    "action": "update:any",
    "attributes": "*"
  },
  {
    "role": "admin",
    "resource": "SubjectInfoTimetable",
    "action": "update:any",
    "attributes": "*"
  },
  {
    "role": "user",
    "resource": "SubjectInfoTimetable",
    "action": "delete:any",
    "attributes": "*"
  },
  {
    "role": "admin",
    "resource": "SubjectInfoTimetable",
    "action": "delete:any",
    "attributes": "*"
  },
  {
    "role": "user",
    "resource": "SubjectInfoTimetable",
    "action": "read:any",
    "attributes": "*"
  },
  {
    "role": "admin",
    "resource": "SubjectInfoTimetable",
    "action": "read:any",
    "attributes": "*"
  },
  {
    "role": "user",
    "resource": "Curriculum",
    "action": "read:own",
    "attributes": "*"
  },
  {
    "role": "admin",
    "resource": "Curriculum",
    "action": "read:own",
    "attributes": "*"
  },
  {
    "role": "user",
    "resource": "Curriculum",
    "action": "create:any",
    "attributes": "*"
  },
  {
    "role": "admin",
    "resource": "Curriculum",
    "action": "create:any",
    "attributes": "*"
  },
  {
    "role": "user",
    "resource": "Curriculum",
    "action": "update:any",
    "attributes": "*"
  },
  {
    "role": "admin",
    "resource": "Curriculum",
    "action": "update:any",
    "attributes": "*"
  },
  {
    "role": "user",
    "resource": "Curriculum",
    "action": "delete:any",
    "attributes": "*"
  },
  {
    "role": "admin",
    "resource": "Curriculum",
    "action": "delete:any",
    "attributes": "*"
  },
  {
    "role": "user",
    "resource": "Curriculum",
    "action": "read:any",
    "attributes": "*"
  },
  {
    "role": "admin",
    "resource": "Curriculum",
    "action": "read:any",
    "attributes": "*"
  },
  {
    "role": "user",
    "resource": "ClassInfoTimetable",
    "action": "read:own",
    "attributes": "*"
  },
  {
    "role": "admin",
    "resource": "ClassInfoTimetable",
    "action": "read:own",
    "attributes": "*"
  },
  {
    "role": "user",
    "resource": "ClassInfoTimetable",
    "action": "create:any",
    "attributes": "*"
  },
  {
    "role": "admin",
    "resource": "ClassInfoTimetable",
    "action": "create:any",
    "attributes": "*"
  },
  {
    "role": "user",
    "resource": "ClassInfoTimetable",
    "action": "update:any",
    "attributes": "*"
  },
  {
    "role": "admin",
    "resource": "ClassInfoTimetable",
    "action": "update:any",
    "attributes": "*"
  },
  {
    "role": "user",
    "resource": "ClassInfoTimetable",
    "action": "delete:any",
    "attributes": "*"
  },
  {
    "role": "admin",
    "resource": "ClassInfoTimetable",
    "action": "delete:any",
    "attributes": "*"
  },
  {
    "role": "user",
    "resource": "ClassInfoTimetable",
    "action": "read:any",
    "attributes": "*"
  },
  {
    "role": "admin",
    "resource": "ClassInfoTimetable",
    "action": "read:any",
    "attributes": "*"
  }
]
